Suite/Test/Step Name,Browser,Description,Start time,End time,Duration,Status
TS_RegressionTest,Firefox 58.0,,2018-04-24 15:34:41,2018-04-24 15:35:26,45.562s,PASSED
,,,,,,
Test Cases/Main Test Cases/TC1_Verify Successful Login,Firefox 58.0,Verify if users can login successful. \n\nSteps:\n- Click on 'Book Appointment' button to login\n- Input username and password\n- Click on 'Login' button\n\nExpected result:\n'Appointment' section is displayed after successful login,2018-04-24 15:34:41,2018-04-24 15:35:12,30.794s,PASSED
comment,Firefox 58.0,,2018-04-24 15:34:42,2018-04-24 15:34:42,0.075s,PASSED
comment,Firefox 58.0,,2018-04-24 15:34:42,2018-04-24 15:34:42,0.015s,PASSED
openBrowser,Firefox 58.0,,2018-04-24 15:34:42,2018-04-24 15:35:10,28.136s,PASSED
click,Firefox 58.0,,2018-04-24 15:35:10,2018-04-24 15:35:11,0.778s,PASSED
setText,Firefox 58.0,,2018-04-24 15:35:11,2018-04-24 15:35:11,0.166s,PASSED
setText,Firefox 58.0,,2018-04-24 15:35:11,2018-04-24 15:35:11,0.067s,PASSED
comment,Firefox 58.0,,2018-04-24 15:35:11,2018-04-24 15:35:11,0.001s,PASSED
click,Firefox 58.0,,2018-04-24 15:35:11,2018-04-24 15:35:12,0.501s,PASSED
comment,Firefox 58.0,,2018-04-24 15:35:12,2018-04-24 15:35:12,0.001s,PASSED
"Statement - landingPage = com.kms.katalon.core.webui.keyword.WebUiBuiltInKeywords.verifyElementPresent(com.kms.katalon.core.testobject.ObjectRepository.findTestObject(Page_CuraAppointment/div_Appointment), G_Timeout)",Firefox 58.0,,2018-04-24 15:35:12,2018-04-24 15:35:12,0.035s,PASSED
closeBrowser,Firefox 58.0,,2018-04-24 15:35:12,2018-04-24 15:35:12,0.419s,PASSED
,,,,,,
Test Cases/Main Test Cases/TC2_Verify Successful Appointment,Firefox 58.0,Verify if users can book an appointment sucessfully.\nPre-condition: Users have already logged in\n\nSteps:\n- Fill in appoinment's information\n- Click on appointment's button\n\nExpected results:\nAppointment Confirmation page is displayed,2018-04-24 15:35:12,2018-04-24 15:35:26,14.297s,PASSED
comment,Firefox 58.0,,2018-04-24 15:35:12,2018-04-24 15:35:12,0.001s,PASSED
comment,Firefox 58.0,,2018-04-24 15:35:12,2018-04-24 15:35:12,0.001s,PASSED
openBrowser,Firefox 58.0,,2018-04-24 15:35:12,2018-04-24 15:35:23,10.903s,PASSED
callTestCase,Firefox 58.0,,2018-04-24 15:35:23,2018-04-24 15:35:25,1.483s,PASSED
comment,Firefox 58.0,,2018-04-24 15:35:25,2018-04-24 15:35:25,0.001s,PASSED
Statement - If (true),Firefox 58.0,,2018-04-24 15:35:25,2018-04-24 15:35:26,0.933s,PASSED
comment,Firefox 58.0,,2018-04-24 15:35:26,2018-04-24 15:35:26,0.000s,PASSED
click,Firefox 58.0,,2018-04-24 15:35:26,2018-04-24 15:35:26,0.291s,PASSED
verifyTextPresent,Firefox 58.0,,2018-04-24 15:35:26,2018-04-24 15:35:26,0.161s,PASSED
comment,Firefox 58.0,,2018-04-24 15:35:26,2018-04-24 15:35:26,0.001s,PASSED
Statement - If (true),Firefox 58.0,,2018-04-24 15:35:26,2018-04-24 15:35:26,0.106s,PASSED
closeBrowser,Firefox 58.0,,2018-04-24 15:35:26,2018-04-24 15:35:26,0.209s,PASSED
